%YAML 1.1
%TAG !u! tag:unity3d.com,2011:
--- !u!1045 &1
EditorBuildSettings:
  m_ObjectHideFlags: 0
  serializedVersion: 2
  m_Scenes:
  - enabled: 1
    path: Assets/Scenes/LobbyScene.unity
    guid: 3adb158719a2fde47b23f83f67d010c9
  - enabled: 1
    path: Assets/Scenes/DeathRaceScene.unity
    guid: 81d5b5e061113c34e9eff65a1a38dfeb
  - enabled: 1
    path: Assets/Scenes/RacingScene.unity
    guid: c7aca73b29e9f844dacc27e38820b236
  m_configObjects: {}
